PCBNEW-LibModule-V1  8/14/2014 9:31:49 PM
# encoding utf-8
Units mm
$INDEX
SOD-80
SOD-80-DIODE
$EndINDEX
$MODULE SOD-80
Po 0 0 0 15 53ED70CA 00000000 ~~
Li SOD-80
Sc 0
AR /53B87208
Op 0 0 0
T0 0 0 0.5 0.5 0 0.1 N V 21 N "REF**"
T1 1.5 0 0.5 0.5 900 0.1 N I 21 N "SOD-80"
DS -0.95 -2.65 -0.95 -1.15 0.15 21
DS 0.95 -2.65 0.95 -1.15 0.15 21
DS 0.95 1.15 0.95 2.65 0.15 21
DS 0.95 2.65 -0.95 2.65 0.15 21
DS -0.95 2.65 -0.95 1.15 0.15 21
DS 0.95 -2.65 -0.95 -2.65 0.15 21
$PAD
Sh "1" R 1.62 1.37 0 0 0
Dr 0 0 0
At SMD N 00808000
Ne 0 ""
Po 0 -1.855
$EndPAD
$PAD
Sh "2" R 1.62 1.37 0 0 0
Dr 0 0 0
At SMD N 00808000
Ne 0 ""
Po 0 1.855
$EndPAD
$EndMODULE SOD-80
$MODULE SOD-80-DIODE
Po 0 0 0 15 53ED7109 00000000 ~~
Li SOD-80-DIODE
Sc 0
AR /53B87208
Op 0 0 0
T0 0 -0.4 0.5 0.5 0 0.1 N V 21 N "REF**"
T1 1.5 0 0.5 0.5 900 0.1 N I 21 N "SOD-80-DIODE"
DS -1 -1 0 1 0.15 21
DS 1 -1 0 1 0.15 21
DS -1 1 1 1 0.15 21
DS -1 -1 1 -1 0.15 21
$PAD
Sh "1" R 1.62 1.37 0 0 0
Dr 0 0 0
At SMD N 00808000
Ne 0 ""
Po 0 -1.855
$EndPAD
$PAD
Sh "2" R 1.62 1.37 0 0 0
Dr 0 0 0
At SMD N 00808000
Ne 0 ""
Po 0 1.855
$EndPAD
$EndMODULE SOD-80-DIODE
$EndLIBRARY
