EESchema Schematic File Version 2
LIBS:power
LIBS:device
LIBS:transistors
LIBS:conn
LIBS:linear
LIBS:regul
LIBS:74xx
LIBS:cmos4000
LIBS:adc-dac
LIBS:memory
LIBS:xilinx
LIBS:special
LIBS:microcontrollers
LIBS:dsp
LIBS:microchip
LIBS:analog_switches
LIBS:motorola
LIBS:texas
LIBS:intel
LIBS:audio
LIBS:interface
LIBS:digital-audio
LIBS:philips
LIBS:display
LIBS:cypress
LIBS:siliconi
LIBS:opto
LIBS:atmel
LIBS:contrib
LIBS:valves
LIBS:IC
LIBS:circuit-cache
EELAYER 27 0
EELAYER END
$Descr A4 11693 8268
encoding utf-8
Sheet 1 1
Title ""
Date "3 nov 2014"
Rev ""
Comp ""
Comment1 ""
Comment2 ""
Comment3 ""
Comment4 ""
$EndDescr
$Comp
L CONN_6 K1
U 1 1 53CB4783
P 4550 4050
F 0 "K1" V 4500 4050 50  0000 C CNN
F 1 "CONN_6" V 4600 4050 40  0000 C CNN
F 2 "" H 4550 4050 60  0000 C CNN
F 3 "" H 4550 4050 60  0000 C CNN
	1    4550 4050
	-1   0    0    -1  
$EndComp
$Comp
L CONN_4 K3
U 1 1 53ED502D
P 8050 4050
F 0 "K3" V 8000 4050 50  0000 C CNN
F 1 "CONN_4" V 8100 4050 40  0000 C CNN
F 2 "" H 8050 4050 60  0000 C CNN
F 3 "" H 8050 4050 60  0000 C CNN
	1    8050 4050
	1    0    0    1   
$EndComp
Text Label 4900 3800 0    60   ~ 0
DTR
Text Label 4900 3900 0    60   ~ 0
3V3
Text Label 4900 4000 0    60   ~ 0
5V
Text Label 4900 4100 0    60   ~ 0
TXD
Text Label 4900 4200 0    60   ~ 0
RXD
Text Label 4900 4300 0    60   ~ 0
GND
Text Label 7700 4200 2    60   ~ 0
PB0
Text Label 7700 4100 2    60   ~ 0
PB1
Text Label 7700 4000 2    60   ~ 0
PB2
$Comp
L JUMPER3 JP1
U 1 1 53ED51D1
P 4900 3300
F 0 "JP1" H 4950 3200 40  0000 L CNN
F 1 "JUMPER3" H 4900 3400 40  0000 C CNN
F 2 "~" H 4900 3300 60  0000 C CNN
F 3 "~" H 4900 3300 60  0000 C CNN
	1    4900 3300
	-1   0    0    1   
$EndComp
Text Label 4900 3200 0    60   ~ 0
VCC
Text Label 5150 3300 0    60   ~ 0
3V3
Text Label 4650 3300 2    60   ~ 0
5V
Text Label 7700 3900 2    60   ~ 0
VCC
$Comp
L R R1
U 1 1 53ED688D
P 4900 5400
F 0 "R1" V 4980 5400 40  0000 C CNN
F 1 "4.7k" V 4907 5401 40  0000 C CNN
F 2 "~" V 4830 5400 30  0000 C CNN
F 3 "~" H 4900 5400 30  0000 C CNN
	1    4900 5400
	1    0    0    -1  
$EndComp
$Comp
L DIODE D1
U 1 1 53ED689E
P 4900 5850
F 0 "D1" H 4900 5950 40  0000 C CNN
F 1 "DIODE" H 4900 5750 40  0000 C CNN
F 2 "~" H 4900 5850 60  0000 C CNN
F 3 "~" H 4900 5850 60  0000 C CNN
	1    4900 5850
	-1   0    0    1   
$EndComp
Text Label 4700 5650 2    60   ~ 0
TXD
Text Label 5100 5750 0    60   ~ 0
RxTx
Wire Wire Line
	4700 5650 5100 5650
Text Label 4900 5150 2    60   ~ 0
VCC
Connection ~ 4900 5650
Wire Wire Line
	5100 5650 5100 5850
Connection ~ 5100 5750
Text Label 4700 5850 2    60   ~ 0
RXD
$Comp
L IC-8 U1
U 1 1 53ED798F
P 6800 4050
F 0 "U1" H 6800 4400 60  0000 C CNN
F 1 "ATTINY85" H 6800 3700 60  0000 C CNN
F 2 "~" H 6800 4050 60  0000 C CNN
F 3 "~" H 6800 4050 60  0000 C CNN
	1    6800 4050
	1    0    0    -1  
$EndComp
Text Label 5900 4200 0    60   ~ 0
GND
Text Label 7250 4200 0    60   ~ 0
RxTx
Text Label 6350 3900 2    60   ~ 0
/RST
Text Label 5900 4000 0    60   ~ 0
PB3
Text Label 5900 4100 0    60   ~ 0
PB4
Wire Wire Line
	7700 4200 7250 4200
Wire Wire Line
	7700 4100 7250 4100
Wire Wire Line
	7700 4000 7250 4000
Wire Wire Line
	7700 3900 7250 3900
$Comp
L CONN_4 K2
U 1 1 53ED79EB
P 5550 4050
F 0 "K2" V 5500 4050 50  0000 C CNN
F 1 "CONN_4" V 5600 4050 40  0000 C CNN
F 2 "" H 5550 4050 60  0000 C CNN
F 3 "" H 5550 4050 60  0000 C CNN
	1    5550 4050
	-1   0    0    -1  
$EndComp
$Comp
L R R3
U 1 1 53ED7A66
P 7750 4950
F 0 "R3" V 7830 4950 40  0000 C CNN
F 1 "390" V 7757 4951 40  0000 C CNN
F 2 "~" V 7680 4950 30  0000 C CNN
F 3 "~" H 7750 4950 30  0000 C CNN
	1    7750 4950
	1    0    0    -1  
$EndComp
Text Label 7750 4700 2    60   ~ 0
VCC
Text Label 4650 4750 2    60   ~ 0
DTR
$Comp
L C C2
U 1 1 53ED7AD3
P 4850 4750
F 0 "C2" H 4850 4850 40  0000 L CNN
F 1 "0.1u" H 4856 4665 40  0000 L CNN
F 2 "~" H 4888 4600 30  0000 C CNN
F 3 "~" H 4850 4750 60  0000 C CNN
	1    4850 4750
	0    -1   -1   0   
$EndComp
Text Label 5900 3900 0    60   ~ 0
PB5
Wire Wire Line
	5900 4200 6350 4200
Wire Wire Line
	5900 4100 6350 4100
Wire Wire Line
	5900 4000 6350 4000
Wire Wire Line
	5900 3900 6350 3900
$Comp
L C C1
U 1 1 53ED7B86
P 6500 3250
F 0 "C1" H 6500 3350 40  0000 L CNN
F 1 "0.1u" H 6506 3165 40  0000 L CNN
F 2 "~" H 6538 3100 30  0000 C CNN
F 3 "~" H 6500 3250 60  0000 C CNN
	1    6500 3250
	1    0    0    -1  
$EndComp
Text Label 6500 3050 2    60   ~ 0
VCC
Text Label 6500 3450 2    60   ~ 0
GND
$Comp
L LED LED1
U 1 1 53ED7C70
P 7750 5400
F 0 "LED1" H 7750 5500 50  0000 C CNN
F 1 "LED" H 7750 5300 50  0000 C CNN
F 2 "~" H 7750 5400 60  0000 C CNN
F 3 "~" H 7750 5400 60  0000 C CNN
	1    7750 5400
	0    1    1    0   
$EndComp
$Comp
L SW_PUSH SW1
U 1 1 53ED7CFB
P 6500 5450
F 0 "SW1" H 6650 5560 50  0000 C CNN
F 1 "SW_PUSH" H 6500 5370 50  0000 C CNN
F 2 "~" H 6500 5450 60  0000 C CNN
F 3 "~" H 6500 5450 60  0000 C CNN
	1    6500 5450
	1    0    0    -1  
$EndComp
Text Label 5050 4750 0    60   ~ 0
/RST
Connection ~ 6200 5200
$Comp
L CP1 C3
U 1 1 53ED7E7B
P 7100 3250
F 0 "C3" H 7150 3350 50  0000 L CNN
F 1 "10u" H 7150 3150 50  0000 L CNN
F 2 "~" H 7100 3250 60  0000 C CNN
F 3 "~" H 7100 3250 60  0000 C CNN
	1    7100 3250
	1    0    0    -1  
$EndComp
Text Label 7100 3050 2    60   ~ 0
VCC
Text Label 7100 3450 2    60   ~ 0
GND
$Comp
L R R2
U 1 1 53ED7EC3
P 6200 4950
F 0 "R2" V 6280 4950 40  0000 C CNN
F 1 "10k" V 6207 4951 40  0000 C CNN
F 2 "~" V 6130 4950 30  0000 C CNN
F 3 "~" H 6200 4950 30  0000 C CNN
	1    6200 4950
	1    0    0    -1  
$EndComp
Text Label 6200 4700 2    60   ~ 0
VCC
Text Label 7750 5800 0    60   ~ 0
PB5
Wire Wire Line
	7750 5600 7750 5800
Text Label 6050 5200 2    60   ~ 0
/RST
Text Label 6800 5450 0    60   ~ 0
GND
Wire Wire Line
	6200 5200 6200 5450
Wire Wire Line
	6050 5200 6200 5200
$EndSCHEMATC
