G04 (created by PCBNEW (2013-07-07 BZR 4022)-stable) date 2/8/2015 9:59:43 PM*
%MOIN*%
G04 Gerber Fmt 3.4, Leading zero omitted, Abs format*
%FSLAX34Y34*%
G01*
G70*
G90*
G04 APERTURE LIST*
%ADD10C,0.00590551*%
%ADD11R,0.0472X0.0472*%
%ADD12C,0.055*%
%ADD13R,0.055X0.035*%
%ADD14C,0.056*%
%ADD15C,0.027*%
%ADD16C,0.02*%
%ADD17C,0.007*%
G04 APERTURE END LIST*
G54D10*
G54D11*
X83500Y-53587D03*
X83500Y-54413D03*
G54D12*
X84500Y-55500D03*
X85500Y-55500D03*
X86500Y-55500D03*
X87500Y-55500D03*
X87500Y-52500D03*
X86500Y-52500D03*
X85500Y-52500D03*
X84500Y-52500D03*
G54D13*
X83500Y-51625D03*
X83500Y-52375D03*
X83500Y-56375D03*
X83500Y-55625D03*
G54D14*
X87500Y-51500D03*
X86500Y-51500D03*
X85500Y-51500D03*
X84500Y-51500D03*
X84500Y-56500D03*
X85500Y-56500D03*
X86500Y-56500D03*
X87500Y-56500D03*
X82500Y-55500D03*
X82500Y-54500D03*
X82500Y-53500D03*
X82500Y-52500D03*
X82500Y-51500D03*
X82500Y-56500D03*
G54D15*
X85900Y-53250D03*
G54D16*
X83500Y-54413D02*
X83500Y-55625D01*
X84500Y-55500D02*
X84500Y-56500D01*
X83500Y-55625D02*
X84375Y-55625D01*
X84375Y-55625D02*
X84500Y-55500D01*
X83500Y-56375D02*
X82625Y-56375D01*
X82625Y-56375D02*
X82500Y-56500D01*
X82500Y-53500D02*
X83000Y-54000D01*
X86000Y-54000D02*
X87500Y-52500D01*
X83000Y-54000D02*
X86000Y-54000D01*
X87500Y-51500D02*
X87500Y-52500D01*
X86500Y-51500D02*
X86500Y-52500D01*
X85500Y-51500D02*
X85500Y-52500D01*
X85500Y-55500D02*
X85500Y-56500D01*
X86500Y-55500D02*
X86500Y-56500D01*
X84500Y-51500D02*
X84500Y-52500D01*
X83500Y-51625D02*
X84375Y-51625D01*
X84375Y-51625D02*
X84500Y-51500D01*
X83500Y-53587D02*
X83500Y-52375D01*
G54D10*
G36*
X87890Y-56890D02*
X87886Y-56890D01*
X87886Y-56476D01*
X87885Y-56469D01*
X87885Y-51462D01*
X87870Y-51388D01*
X87841Y-51318D01*
X87799Y-51255D01*
X87746Y-51201D01*
X87684Y-51159D01*
X87614Y-51130D01*
X87540Y-51115D01*
X87464Y-51114D01*
X87390Y-51128D01*
X87320Y-51157D01*
X87257Y-51198D01*
X87203Y-51251D01*
X87160Y-51313D01*
X87131Y-51383D01*
X87115Y-51456D01*
X87114Y-51532D01*
X87128Y-51606D01*
X87155Y-51676D01*
X87196Y-51740D01*
X87249Y-51794D01*
X87295Y-51826D01*
X87295Y-52179D01*
X87260Y-52202D01*
X87207Y-52254D01*
X87165Y-52316D01*
X87136Y-52384D01*
X87120Y-52457D01*
X87119Y-52531D01*
X87128Y-52581D01*
X86885Y-52825D01*
X86885Y-51462D01*
X86870Y-51388D01*
X86841Y-51318D01*
X86799Y-51255D01*
X86746Y-51201D01*
X86684Y-51159D01*
X86614Y-51130D01*
X86540Y-51115D01*
X86464Y-51114D01*
X86390Y-51128D01*
X86320Y-51157D01*
X86257Y-51198D01*
X86203Y-51251D01*
X86160Y-51313D01*
X86131Y-51383D01*
X86115Y-51456D01*
X86114Y-51532D01*
X86128Y-51606D01*
X86155Y-51676D01*
X86196Y-51740D01*
X86249Y-51794D01*
X86295Y-51826D01*
X86295Y-52179D01*
X86260Y-52202D01*
X86207Y-52254D01*
X86165Y-52316D01*
X86136Y-52384D01*
X86120Y-52457D01*
X86119Y-52531D01*
X86132Y-52605D01*
X86160Y-52674D01*
X86200Y-52737D01*
X86252Y-52790D01*
X86313Y-52833D01*
X86382Y-52863D01*
X86454Y-52879D01*
X86529Y-52880D01*
X86602Y-52867D01*
X86672Y-52840D01*
X86735Y-52800D01*
X86789Y-52749D01*
X86832Y-52688D01*
X86862Y-52620D01*
X86878Y-52547D01*
X86880Y-52462D01*
X86865Y-52389D01*
X86837Y-52320D01*
X86795Y-52258D01*
X86743Y-52205D01*
X86705Y-52179D01*
X86705Y-51825D01*
X86738Y-51804D01*
X86792Y-51752D01*
X86836Y-51691D01*
X86867Y-51622D01*
X86883Y-51548D01*
X86885Y-51462D01*
X86885Y-52825D01*
X85915Y-53795D01*
X85885Y-53795D01*
X85885Y-51462D01*
X85870Y-51388D01*
X85841Y-51318D01*
X85799Y-51255D01*
X85746Y-51201D01*
X85684Y-51159D01*
X85614Y-51130D01*
X85540Y-51115D01*
X85464Y-51114D01*
X85390Y-51128D01*
X85320Y-51157D01*
X85257Y-51198D01*
X85203Y-51251D01*
X85160Y-51313D01*
X85131Y-51383D01*
X85115Y-51456D01*
X85114Y-51532D01*
X85128Y-51606D01*
X85155Y-51676D01*
X85196Y-51740D01*
X85249Y-51794D01*
X85295Y-51826D01*
X85295Y-52179D01*
X85260Y-52202D01*
X85207Y-52254D01*
X85165Y-52316D01*
X85136Y-52384D01*
X85120Y-52457D01*
X85119Y-52531D01*
X85132Y-52605D01*
X85160Y-52674D01*
X85200Y-52737D01*
X85252Y-52790D01*
X85313Y-52833D01*
X85382Y-52863D01*
X85454Y-52879D01*
X85529Y-52880D01*
X85602Y-52867D01*
X85672Y-52840D01*
X85735Y-52800D01*
X85789Y-52749D01*
X85832Y-52688D01*
X85862Y-52620D01*
X85878Y-52547D01*
X85880Y-52462D01*
X85865Y-52389D01*
X85837Y-52320D01*
X85795Y-52258D01*
X85743Y-52205D01*
X85705Y-52179D01*
X85705Y-51825D01*
X85738Y-51804D01*
X85792Y-51752D01*
X85836Y-51691D01*
X85867Y-51622D01*
X85883Y-51548D01*
X85885Y-51462D01*
X85885Y-53795D01*
X84885Y-53795D01*
X84885Y-51462D01*
X84870Y-51388D01*
X84841Y-51318D01*
X84799Y-51255D01*
X84746Y-51201D01*
X84684Y-51159D01*
X84614Y-51130D01*
X84540Y-51115D01*
X84464Y-51114D01*
X84390Y-51128D01*
X84320Y-51157D01*
X84257Y-51198D01*
X84203Y-51251D01*
X84160Y-51313D01*
X84131Y-51383D01*
X84123Y-51420D01*
X83876Y-51420D01*
X83876Y-51419D01*
X83868Y-51400D01*
X83856Y-51383D01*
X83842Y-51368D01*
X83825Y-51357D01*
X83806Y-51349D01*
X83786Y-51345D01*
X83765Y-51344D01*
X83214Y-51344D01*
X83194Y-51348D01*
X83175Y-51356D01*
X83158Y-51368D01*
X83143Y-51382D01*
X83132Y-51399D01*
X83124Y-51418D01*
X83120Y-51438D01*
X83119Y-51459D01*
X83119Y-51810D01*
X83123Y-51830D01*
X83131Y-51849D01*
X83143Y-51866D01*
X83157Y-51881D01*
X83174Y-51892D01*
X83193Y-51900D01*
X83213Y-51904D01*
X83234Y-51905D01*
X83785Y-51905D01*
X83805Y-51901D01*
X83824Y-51893D01*
X83841Y-51881D01*
X83856Y-51867D01*
X83867Y-51850D01*
X83875Y-51831D01*
X83876Y-51830D01*
X84295Y-51830D01*
X84295Y-52179D01*
X84260Y-52202D01*
X84207Y-52254D01*
X84165Y-52316D01*
X84136Y-52384D01*
X84120Y-52457D01*
X84119Y-52531D01*
X84132Y-52605D01*
X84160Y-52674D01*
X84200Y-52737D01*
X84252Y-52790D01*
X84313Y-52833D01*
X84382Y-52863D01*
X84454Y-52879D01*
X84529Y-52880D01*
X84602Y-52867D01*
X84672Y-52840D01*
X84735Y-52800D01*
X84789Y-52749D01*
X84832Y-52688D01*
X84862Y-52620D01*
X84878Y-52547D01*
X84880Y-52462D01*
X84865Y-52389D01*
X84837Y-52320D01*
X84795Y-52258D01*
X84743Y-52205D01*
X84705Y-52179D01*
X84705Y-51825D01*
X84738Y-51804D01*
X84792Y-51752D01*
X84836Y-51691D01*
X84867Y-51622D01*
X84883Y-51548D01*
X84885Y-51462D01*
X84885Y-53795D01*
X83841Y-53795D01*
X83841Y-53340D01*
X83837Y-53320D01*
X83829Y-53301D01*
X83817Y-53284D01*
X83803Y-53269D01*
X83786Y-53258D01*
X83767Y-53250D01*
X83747Y-53246D01*
X83726Y-53245D01*
X83705Y-53245D01*
X83705Y-52655D01*
X83785Y-52655D01*
X83805Y-52651D01*
X83824Y-52643D01*
X83841Y-52631D01*
X83856Y-52617D01*
X83867Y-52600D01*
X83875Y-52581D01*
X83879Y-52561D01*
X83880Y-52540D01*
X83880Y-52189D01*
X83876Y-52169D01*
X83868Y-52150D01*
X83856Y-52133D01*
X83842Y-52118D01*
X83825Y-52107D01*
X83806Y-52099D01*
X83786Y-52095D01*
X83765Y-52094D01*
X83214Y-52094D01*
X83194Y-52098D01*
X83175Y-52106D01*
X83158Y-52118D01*
X83143Y-52132D01*
X83132Y-52149D01*
X83124Y-52168D01*
X83120Y-52188D01*
X83119Y-52209D01*
X83119Y-52560D01*
X83123Y-52580D01*
X83131Y-52599D01*
X83143Y-52616D01*
X83157Y-52631D01*
X83174Y-52642D01*
X83193Y-52650D01*
X83213Y-52654D01*
X83234Y-52655D01*
X83295Y-52655D01*
X83295Y-53245D01*
X83253Y-53245D01*
X83233Y-53249D01*
X83214Y-53257D01*
X83197Y-53269D01*
X83182Y-53283D01*
X83171Y-53300D01*
X83163Y-53319D01*
X83159Y-53339D01*
X83158Y-53360D01*
X83158Y-53795D01*
X83084Y-53795D01*
X82886Y-53596D01*
X82886Y-51476D01*
X82874Y-51401D01*
X82847Y-51330D01*
X82834Y-51306D01*
X82781Y-51274D01*
X82725Y-51331D01*
X82725Y-51218D01*
X82693Y-51165D01*
X82625Y-51133D01*
X82551Y-51116D01*
X82476Y-51113D01*
X82401Y-51125D01*
X82330Y-51152D01*
X82306Y-51165D01*
X82274Y-51218D01*
X82500Y-51443D01*
X82725Y-51218D01*
X82725Y-51331D01*
X82556Y-51500D01*
X82781Y-51725D01*
X82834Y-51693D01*
X82866Y-51625D01*
X82883Y-51551D01*
X82886Y-51476D01*
X82886Y-53596D01*
X82875Y-53585D01*
X82883Y-53548D01*
X82885Y-53462D01*
X82885Y-52462D01*
X82870Y-52388D01*
X82841Y-52318D01*
X82799Y-52255D01*
X82746Y-52201D01*
X82725Y-52187D01*
X82725Y-51781D01*
X82500Y-51556D01*
X82443Y-51613D01*
X82443Y-51500D01*
X82218Y-51274D01*
X82165Y-51306D01*
X82133Y-51374D01*
X82116Y-51448D01*
X82113Y-51523D01*
X82125Y-51598D01*
X82152Y-51669D01*
X82165Y-51693D01*
X82218Y-51725D01*
X82443Y-51500D01*
X82443Y-51613D01*
X82274Y-51781D01*
X82306Y-51834D01*
X82374Y-51866D01*
X82448Y-51883D01*
X82523Y-51886D01*
X82598Y-51874D01*
X82669Y-51847D01*
X82693Y-51834D01*
X82725Y-51781D01*
X82725Y-52187D01*
X82684Y-52159D01*
X82614Y-52130D01*
X82540Y-52115D01*
X82464Y-52114D01*
X82390Y-52128D01*
X82320Y-52157D01*
X82257Y-52198D01*
X82203Y-52251D01*
X82160Y-52313D01*
X82131Y-52383D01*
X82115Y-52456D01*
X82114Y-52532D01*
X82128Y-52606D01*
X82155Y-52676D01*
X82196Y-52740D01*
X82249Y-52794D01*
X82311Y-52837D01*
X82380Y-52867D01*
X82454Y-52884D01*
X82529Y-52885D01*
X82604Y-52872D01*
X82674Y-52845D01*
X82738Y-52804D01*
X82792Y-52752D01*
X82836Y-52691D01*
X82867Y-52622D01*
X82883Y-52548D01*
X82885Y-52462D01*
X82885Y-53462D01*
X82870Y-53388D01*
X82841Y-53318D01*
X82799Y-53255D01*
X82746Y-53201D01*
X82684Y-53159D01*
X82614Y-53130D01*
X82540Y-53115D01*
X82464Y-53114D01*
X82390Y-53128D01*
X82320Y-53157D01*
X82257Y-53198D01*
X82203Y-53251D01*
X82160Y-53313D01*
X82131Y-53383D01*
X82115Y-53456D01*
X82114Y-53532D01*
X82128Y-53606D01*
X82155Y-53676D01*
X82196Y-53740D01*
X82249Y-53794D01*
X82311Y-53837D01*
X82380Y-53867D01*
X82454Y-53884D01*
X82529Y-53885D01*
X82585Y-53875D01*
X82855Y-54144D01*
X82869Y-54156D01*
X82884Y-54169D01*
X82885Y-54169D01*
X82885Y-54170D01*
X82902Y-54179D01*
X82919Y-54188D01*
X82920Y-54188D01*
X82921Y-54189D01*
X82939Y-54194D01*
X82957Y-54200D01*
X82958Y-54200D01*
X82959Y-54200D01*
X82978Y-54202D01*
X82997Y-54204D01*
X82999Y-54204D01*
X82999Y-54204D01*
X82999Y-54204D01*
X83000Y-54205D01*
X83158Y-54205D01*
X83158Y-54659D01*
X83162Y-54679D01*
X83170Y-54698D01*
X83182Y-54715D01*
X83196Y-54730D01*
X83213Y-54741D01*
X83232Y-54749D01*
X83252Y-54753D01*
X83273Y-54754D01*
X83295Y-54754D01*
X83295Y-55344D01*
X83214Y-55344D01*
X83194Y-55348D01*
X83175Y-55356D01*
X83158Y-55368D01*
X83143Y-55382D01*
X83132Y-55399D01*
X83124Y-55418D01*
X83120Y-55438D01*
X83119Y-55459D01*
X83119Y-55810D01*
X83123Y-55830D01*
X83131Y-55849D01*
X83143Y-55866D01*
X83157Y-55881D01*
X83174Y-55892D01*
X83193Y-55900D01*
X83213Y-55904D01*
X83234Y-55905D01*
X83785Y-55905D01*
X83805Y-55901D01*
X83824Y-55893D01*
X83841Y-55881D01*
X83856Y-55867D01*
X83867Y-55850D01*
X83875Y-55831D01*
X83876Y-55830D01*
X84295Y-55830D01*
X84295Y-56174D01*
X84257Y-56198D01*
X84203Y-56251D01*
X84160Y-56313D01*
X84131Y-56383D01*
X84115Y-56456D01*
X84114Y-56532D01*
X84128Y-56606D01*
X84155Y-56676D01*
X84196Y-56740D01*
X84249Y-56794D01*
X84311Y-56837D01*
X84380Y-56867D01*
X84454Y-56884D01*
X84529Y-56885D01*
X84604Y-56872D01*
X84674Y-56845D01*
X84738Y-56804D01*
X84792Y-56752D01*
X84836Y-56691D01*
X84867Y-56622D01*
X84883Y-56548D01*
X84885Y-56462D01*
X84870Y-56388D01*
X84841Y-56318D01*
X84799Y-56255D01*
X84746Y-56201D01*
X84705Y-56173D01*
X84705Y-55819D01*
X84735Y-55800D01*
X84789Y-55749D01*
X84832Y-55688D01*
X84862Y-55620D01*
X84878Y-55547D01*
X84880Y-55462D01*
X84865Y-55389D01*
X84837Y-55320D01*
X84795Y-55258D01*
X84743Y-55205D01*
X84681Y-55164D01*
X84612Y-55135D01*
X84539Y-55120D01*
X84465Y-55119D01*
X84392Y-55133D01*
X84323Y-55161D01*
X84260Y-55202D01*
X84207Y-55254D01*
X84165Y-55316D01*
X84136Y-55384D01*
X84128Y-55420D01*
X83876Y-55420D01*
X83876Y-55419D01*
X83868Y-55400D01*
X83856Y-55383D01*
X83842Y-55368D01*
X83825Y-55357D01*
X83806Y-55349D01*
X83786Y-55345D01*
X83765Y-55344D01*
X83705Y-55344D01*
X83705Y-54754D01*
X83746Y-54754D01*
X83766Y-54750D01*
X83785Y-54742D01*
X83802Y-54730D01*
X83817Y-54716D01*
X83828Y-54699D01*
X83836Y-54680D01*
X83840Y-54660D01*
X83841Y-54639D01*
X83841Y-54205D01*
X86000Y-54205D01*
X86018Y-54203D01*
X86037Y-54201D01*
X86038Y-54201D01*
X86039Y-54201D01*
X86057Y-54195D01*
X86076Y-54190D01*
X86077Y-54189D01*
X86078Y-54189D01*
X86094Y-54180D01*
X86111Y-54171D01*
X86112Y-54171D01*
X86113Y-54170D01*
X86128Y-54158D01*
X86142Y-54146D01*
X86144Y-54145D01*
X86144Y-54145D01*
X86144Y-54145D01*
X86144Y-54144D01*
X87418Y-52871D01*
X87454Y-52879D01*
X87529Y-52880D01*
X87602Y-52867D01*
X87672Y-52840D01*
X87735Y-52800D01*
X87789Y-52749D01*
X87832Y-52688D01*
X87862Y-52620D01*
X87878Y-52547D01*
X87880Y-52462D01*
X87865Y-52389D01*
X87837Y-52320D01*
X87795Y-52258D01*
X87743Y-52205D01*
X87705Y-52179D01*
X87705Y-51825D01*
X87738Y-51804D01*
X87792Y-51752D01*
X87836Y-51691D01*
X87867Y-51622D01*
X87883Y-51548D01*
X87885Y-51462D01*
X87885Y-56469D01*
X87881Y-56444D01*
X87881Y-55475D01*
X87869Y-55402D01*
X87843Y-55332D01*
X87830Y-55309D01*
X87778Y-55278D01*
X87721Y-55335D01*
X87721Y-55221D01*
X87690Y-55169D01*
X87622Y-55138D01*
X87550Y-55121D01*
X87475Y-55118D01*
X87402Y-55130D01*
X87332Y-55156D01*
X87309Y-55169D01*
X87278Y-55221D01*
X87500Y-55443D01*
X87721Y-55221D01*
X87721Y-55335D01*
X87556Y-55500D01*
X87778Y-55721D01*
X87830Y-55690D01*
X87861Y-55622D01*
X87878Y-55550D01*
X87881Y-55475D01*
X87881Y-56444D01*
X87874Y-56401D01*
X87847Y-56330D01*
X87834Y-56306D01*
X87781Y-56274D01*
X87725Y-56331D01*
X87725Y-56218D01*
X87721Y-56212D01*
X87721Y-55778D01*
X87500Y-55556D01*
X87443Y-55613D01*
X87443Y-55500D01*
X87221Y-55278D01*
X87169Y-55309D01*
X87138Y-55377D01*
X87121Y-55449D01*
X87118Y-55524D01*
X87130Y-55597D01*
X87156Y-55667D01*
X87169Y-55690D01*
X87221Y-55721D01*
X87443Y-55500D01*
X87443Y-55613D01*
X87278Y-55778D01*
X87309Y-55830D01*
X87377Y-55861D01*
X87449Y-55878D01*
X87524Y-55881D01*
X87597Y-55869D01*
X87667Y-55843D01*
X87690Y-55830D01*
X87721Y-55778D01*
X87721Y-56212D01*
X87693Y-56165D01*
X87625Y-56133D01*
X87551Y-56116D01*
X87476Y-56113D01*
X87401Y-56125D01*
X87330Y-56152D01*
X87306Y-56165D01*
X87274Y-56218D01*
X87500Y-56443D01*
X87725Y-56218D01*
X87725Y-56331D01*
X87556Y-56500D01*
X87781Y-56725D01*
X87834Y-56693D01*
X87866Y-56625D01*
X87883Y-56551D01*
X87886Y-56476D01*
X87886Y-56890D01*
X87725Y-56890D01*
X87725Y-56781D01*
X87500Y-56556D01*
X87443Y-56613D01*
X87443Y-56500D01*
X87218Y-56274D01*
X87165Y-56306D01*
X87133Y-56374D01*
X87116Y-56448D01*
X87113Y-56523D01*
X87125Y-56598D01*
X87152Y-56669D01*
X87165Y-56693D01*
X87218Y-56725D01*
X87443Y-56500D01*
X87443Y-56613D01*
X87274Y-56781D01*
X87306Y-56834D01*
X87374Y-56866D01*
X87448Y-56883D01*
X87523Y-56886D01*
X87598Y-56874D01*
X87669Y-56847D01*
X87693Y-56834D01*
X87725Y-56781D01*
X87725Y-56890D01*
X86885Y-56890D01*
X86885Y-56462D01*
X86870Y-56388D01*
X86841Y-56318D01*
X86799Y-56255D01*
X86746Y-56201D01*
X86705Y-56173D01*
X86705Y-55819D01*
X86735Y-55800D01*
X86789Y-55749D01*
X86832Y-55688D01*
X86862Y-55620D01*
X86878Y-55547D01*
X86880Y-55462D01*
X86865Y-55389D01*
X86837Y-55320D01*
X86795Y-55258D01*
X86743Y-55205D01*
X86681Y-55164D01*
X86612Y-55135D01*
X86539Y-55120D01*
X86465Y-55119D01*
X86392Y-55133D01*
X86323Y-55161D01*
X86260Y-55202D01*
X86207Y-55254D01*
X86165Y-55316D01*
X86136Y-55384D01*
X86120Y-55457D01*
X86119Y-55531D01*
X86132Y-55605D01*
X86160Y-55674D01*
X86200Y-55737D01*
X86252Y-55790D01*
X86295Y-55820D01*
X86295Y-56174D01*
X86257Y-56198D01*
X86203Y-56251D01*
X86160Y-56313D01*
X86131Y-56383D01*
X86115Y-56456D01*
X86114Y-56532D01*
X86128Y-56606D01*
X86155Y-56676D01*
X86196Y-56740D01*
X86249Y-56794D01*
X86311Y-56837D01*
X86380Y-56867D01*
X86454Y-56884D01*
X86529Y-56885D01*
X86604Y-56872D01*
X86674Y-56845D01*
X86738Y-56804D01*
X86792Y-56752D01*
X86836Y-56691D01*
X86867Y-56622D01*
X86883Y-56548D01*
X86885Y-56462D01*
X86885Y-56890D01*
X85885Y-56890D01*
X85885Y-56462D01*
X85870Y-56388D01*
X85841Y-56318D01*
X85799Y-56255D01*
X85746Y-56201D01*
X85705Y-56173D01*
X85705Y-55819D01*
X85735Y-55800D01*
X85789Y-55749D01*
X85832Y-55688D01*
X85862Y-55620D01*
X85878Y-55547D01*
X85880Y-55462D01*
X85865Y-55389D01*
X85837Y-55320D01*
X85795Y-55258D01*
X85743Y-55205D01*
X85681Y-55164D01*
X85612Y-55135D01*
X85539Y-55120D01*
X85465Y-55119D01*
X85392Y-55133D01*
X85323Y-55161D01*
X85260Y-55202D01*
X85207Y-55254D01*
X85165Y-55316D01*
X85136Y-55384D01*
X85120Y-55457D01*
X85119Y-55531D01*
X85132Y-55605D01*
X85160Y-55674D01*
X85200Y-55737D01*
X85252Y-55790D01*
X85295Y-55820D01*
X85295Y-56174D01*
X85257Y-56198D01*
X85203Y-56251D01*
X85160Y-56313D01*
X85131Y-56383D01*
X85115Y-56456D01*
X85114Y-56532D01*
X85128Y-56606D01*
X85155Y-56676D01*
X85196Y-56740D01*
X85249Y-56794D01*
X85311Y-56837D01*
X85380Y-56867D01*
X85454Y-56884D01*
X85529Y-56885D01*
X85604Y-56872D01*
X85674Y-56845D01*
X85738Y-56804D01*
X85792Y-56752D01*
X85836Y-56691D01*
X85867Y-56622D01*
X85883Y-56548D01*
X85885Y-56462D01*
X85885Y-56890D01*
X83880Y-56890D01*
X83880Y-56540D01*
X83880Y-56189D01*
X83876Y-56169D01*
X83868Y-56150D01*
X83856Y-56133D01*
X83842Y-56118D01*
X83825Y-56107D01*
X83806Y-56099D01*
X83786Y-56095D01*
X83765Y-56094D01*
X83214Y-56094D01*
X83194Y-56098D01*
X83175Y-56106D01*
X83158Y-56118D01*
X83143Y-56132D01*
X83132Y-56149D01*
X83124Y-56168D01*
X83123Y-56170D01*
X82885Y-56170D01*
X82885Y-55462D01*
X82885Y-54462D01*
X82870Y-54388D01*
X82841Y-54318D01*
X82799Y-54255D01*
X82746Y-54201D01*
X82684Y-54159D01*
X82614Y-54130D01*
X82540Y-54115D01*
X82464Y-54114D01*
X82390Y-54128D01*
X82320Y-54157D01*
X82257Y-54198D01*
X82203Y-54251D01*
X82160Y-54313D01*
X82131Y-54383D01*
X82115Y-54456D01*
X82114Y-54532D01*
X82128Y-54606D01*
X82155Y-54676D01*
X82196Y-54740D01*
X82249Y-54794D01*
X82311Y-54837D01*
X82380Y-54867D01*
X82454Y-54884D01*
X82529Y-54885D01*
X82604Y-54872D01*
X82674Y-54845D01*
X82738Y-54804D01*
X82792Y-54752D01*
X82836Y-54691D01*
X82867Y-54622D01*
X82883Y-54548D01*
X82885Y-54462D01*
X82885Y-55462D01*
X82870Y-55388D01*
X82841Y-55318D01*
X82799Y-55255D01*
X82746Y-55201D01*
X82684Y-55159D01*
X82614Y-55130D01*
X82540Y-55115D01*
X82464Y-55114D01*
X82390Y-55128D01*
X82320Y-55157D01*
X82257Y-55198D01*
X82203Y-55251D01*
X82160Y-55313D01*
X82131Y-55383D01*
X82115Y-55456D01*
X82114Y-55532D01*
X82128Y-55606D01*
X82155Y-55676D01*
X82196Y-55740D01*
X82249Y-55794D01*
X82311Y-55837D01*
X82380Y-55867D01*
X82454Y-55884D01*
X82529Y-55885D01*
X82604Y-55872D01*
X82674Y-55845D01*
X82738Y-55804D01*
X82792Y-55752D01*
X82836Y-55691D01*
X82867Y-55622D01*
X82883Y-55548D01*
X82885Y-55462D01*
X82885Y-56170D01*
X82699Y-56170D01*
X82684Y-56159D01*
X82614Y-56130D01*
X82540Y-56115D01*
X82464Y-56114D01*
X82390Y-56128D01*
X82320Y-56157D01*
X82257Y-56198D01*
X82203Y-56251D01*
X82160Y-56313D01*
X82131Y-56383D01*
X82115Y-56456D01*
X82114Y-56532D01*
X82128Y-56606D01*
X82155Y-56676D01*
X82196Y-56740D01*
X82249Y-56794D01*
X82311Y-56837D01*
X82380Y-56867D01*
X82454Y-56884D01*
X82529Y-56885D01*
X82604Y-56872D01*
X82674Y-56845D01*
X82738Y-56804D01*
X82792Y-56752D01*
X82836Y-56691D01*
X82867Y-56622D01*
X82876Y-56580D01*
X83123Y-56580D01*
X83123Y-56580D01*
X83131Y-56599D01*
X83143Y-56616D01*
X83157Y-56631D01*
X83174Y-56642D01*
X83193Y-56650D01*
X83213Y-56654D01*
X83234Y-56655D01*
X83785Y-56655D01*
X83805Y-56651D01*
X83824Y-56643D01*
X83841Y-56631D01*
X83856Y-56617D01*
X83867Y-56600D01*
X83875Y-56581D01*
X83879Y-56561D01*
X83880Y-56540D01*
X83880Y-56890D01*
X82110Y-56890D01*
X82110Y-51110D01*
X87890Y-51110D01*
X87890Y-56890D01*
X87890Y-56890D01*
G37*
G54D17*
X87890Y-56890D02*
X87886Y-56890D01*
X87886Y-56476D01*
X87885Y-56469D01*
X87885Y-51462D01*
X87870Y-51388D01*
X87841Y-51318D01*
X87799Y-51255D01*
X87746Y-51201D01*
X87684Y-51159D01*
X87614Y-51130D01*
X87540Y-51115D01*
X87464Y-51114D01*
X87390Y-51128D01*
X87320Y-51157D01*
X87257Y-51198D01*
X87203Y-51251D01*
X87160Y-51313D01*
X87131Y-51383D01*
X87115Y-51456D01*
X87114Y-51532D01*
X87128Y-51606D01*
X87155Y-51676D01*
X87196Y-51740D01*
X87249Y-51794D01*
X87295Y-51826D01*
X87295Y-52179D01*
X87260Y-52202D01*
X87207Y-52254D01*
X87165Y-52316D01*
X87136Y-52384D01*
X87120Y-52457D01*
X87119Y-52531D01*
X87128Y-52581D01*
X86885Y-52825D01*
X86885Y-51462D01*
X86870Y-51388D01*
X86841Y-51318D01*
X86799Y-51255D01*
X86746Y-51201D01*
X86684Y-51159D01*
X86614Y-51130D01*
X86540Y-51115D01*
X86464Y-51114D01*
X86390Y-51128D01*
X86320Y-51157D01*
X86257Y-51198D01*
X86203Y-51251D01*
X86160Y-51313D01*
X86131Y-51383D01*
X86115Y-51456D01*
X86114Y-51532D01*
X86128Y-51606D01*
X86155Y-51676D01*
X86196Y-51740D01*
X86249Y-51794D01*
X86295Y-51826D01*
X86295Y-52179D01*
X86260Y-52202D01*
X86207Y-52254D01*
X86165Y-52316D01*
X86136Y-52384D01*
X86120Y-52457D01*
X86119Y-52531D01*
X86132Y-52605D01*
X86160Y-52674D01*
X86200Y-52737D01*
X86252Y-52790D01*
X86313Y-52833D01*
X86382Y-52863D01*
X86454Y-52879D01*
X86529Y-52880D01*
X86602Y-52867D01*
X86672Y-52840D01*
X86735Y-52800D01*
X86789Y-52749D01*
X86832Y-52688D01*
X86862Y-52620D01*
X86878Y-52547D01*
X86880Y-52462D01*
X86865Y-52389D01*
X86837Y-52320D01*
X86795Y-52258D01*
X86743Y-52205D01*
X86705Y-52179D01*
X86705Y-51825D01*
X86738Y-51804D01*
X86792Y-51752D01*
X86836Y-51691D01*
X86867Y-51622D01*
X86883Y-51548D01*
X86885Y-51462D01*
X86885Y-52825D01*
X85915Y-53795D01*
X85885Y-53795D01*
X85885Y-51462D01*
X85870Y-51388D01*
X85841Y-51318D01*
X85799Y-51255D01*
X85746Y-51201D01*
X85684Y-51159D01*
X85614Y-51130D01*
X85540Y-51115D01*
X85464Y-51114D01*
X85390Y-51128D01*
X85320Y-51157D01*
X85257Y-51198D01*
X85203Y-51251D01*
X85160Y-51313D01*
X85131Y-51383D01*
X85115Y-51456D01*
X85114Y-51532D01*
X85128Y-51606D01*
X85155Y-51676D01*
X85196Y-51740D01*
X85249Y-51794D01*
X85295Y-51826D01*
X85295Y-52179D01*
X85260Y-52202D01*
X85207Y-52254D01*
X85165Y-52316D01*
X85136Y-52384D01*
X85120Y-52457D01*
X85119Y-52531D01*
X85132Y-52605D01*
X85160Y-52674D01*
X85200Y-52737D01*
X85252Y-52790D01*
X85313Y-52833D01*
X85382Y-52863D01*
X85454Y-52879D01*
X85529Y-52880D01*
X85602Y-52867D01*
X85672Y-52840D01*
X85735Y-52800D01*
X85789Y-52749D01*
X85832Y-52688D01*
X85862Y-52620D01*
X85878Y-52547D01*
X85880Y-52462D01*
X85865Y-52389D01*
X85837Y-52320D01*
X85795Y-52258D01*
X85743Y-52205D01*
X85705Y-52179D01*
X85705Y-51825D01*
X85738Y-51804D01*
X85792Y-51752D01*
X85836Y-51691D01*
X85867Y-51622D01*
X85883Y-51548D01*
X85885Y-51462D01*
X85885Y-53795D01*
X84885Y-53795D01*
X84885Y-51462D01*
X84870Y-51388D01*
X84841Y-51318D01*
X84799Y-51255D01*
X84746Y-51201D01*
X84684Y-51159D01*
X84614Y-51130D01*
X84540Y-51115D01*
X84464Y-51114D01*
X84390Y-51128D01*
X84320Y-51157D01*
X84257Y-51198D01*
X84203Y-51251D01*
X84160Y-51313D01*
X84131Y-51383D01*
X84123Y-51420D01*
X83876Y-51420D01*
X83876Y-51419D01*
X83868Y-51400D01*
X83856Y-51383D01*
X83842Y-51368D01*
X83825Y-51357D01*
X83806Y-51349D01*
X83786Y-51345D01*
X83765Y-51344D01*
X83214Y-51344D01*
X83194Y-51348D01*
X83175Y-51356D01*
X83158Y-51368D01*
X83143Y-51382D01*
X83132Y-51399D01*
X83124Y-51418D01*
X83120Y-51438D01*
X83119Y-51459D01*
X83119Y-51810D01*
X83123Y-51830D01*
X83131Y-51849D01*
X83143Y-51866D01*
X83157Y-51881D01*
X83174Y-51892D01*
X83193Y-51900D01*
X83213Y-51904D01*
X83234Y-51905D01*
X83785Y-51905D01*
X83805Y-51901D01*
X83824Y-51893D01*
X83841Y-51881D01*
X83856Y-51867D01*
X83867Y-51850D01*
X83875Y-51831D01*
X83876Y-51830D01*
X84295Y-51830D01*
X84295Y-52179D01*
X84260Y-52202D01*
X84207Y-52254D01*
X84165Y-52316D01*
X84136Y-52384D01*
X84120Y-52457D01*
X84119Y-52531D01*
X84132Y-52605D01*
X84160Y-52674D01*
X84200Y-52737D01*
X84252Y-52790D01*
X84313Y-52833D01*
X84382Y-52863D01*
X84454Y-52879D01*
X84529Y-52880D01*
X84602Y-52867D01*
X84672Y-52840D01*
X84735Y-52800D01*
X84789Y-52749D01*
X84832Y-52688D01*
X84862Y-52620D01*
X84878Y-52547D01*
X84880Y-52462D01*
X84865Y-52389D01*
X84837Y-52320D01*
X84795Y-52258D01*
X84743Y-52205D01*
X84705Y-52179D01*
X84705Y-51825D01*
X84738Y-51804D01*
X84792Y-51752D01*
X84836Y-51691D01*
X84867Y-51622D01*
X84883Y-51548D01*
X84885Y-51462D01*
X84885Y-53795D01*
X83841Y-53795D01*
X83841Y-53340D01*
X83837Y-53320D01*
X83829Y-53301D01*
X83817Y-53284D01*
X83803Y-53269D01*
X83786Y-53258D01*
X83767Y-53250D01*
X83747Y-53246D01*
X83726Y-53245D01*
X83705Y-53245D01*
X83705Y-52655D01*
X83785Y-52655D01*
X83805Y-52651D01*
X83824Y-52643D01*
X83841Y-52631D01*
X83856Y-52617D01*
X83867Y-52600D01*
X83875Y-52581D01*
X83879Y-52561D01*
X83880Y-52540D01*
X83880Y-52189D01*
X83876Y-52169D01*
X83868Y-52150D01*
X83856Y-52133D01*
X83842Y-52118D01*
X83825Y-52107D01*
X83806Y-52099D01*
X83786Y-52095D01*
X83765Y-52094D01*
X83214Y-52094D01*
X83194Y-52098D01*
X83175Y-52106D01*
X83158Y-52118D01*
X83143Y-52132D01*
X83132Y-52149D01*
X83124Y-52168D01*
X83120Y-52188D01*
X83119Y-52209D01*
X83119Y-52560D01*
X83123Y-52580D01*
X83131Y-52599D01*
X83143Y-52616D01*
X83157Y-52631D01*
X83174Y-52642D01*
X83193Y-52650D01*
X83213Y-52654D01*
X83234Y-52655D01*
X83295Y-52655D01*
X83295Y-53245D01*
X83253Y-53245D01*
X83233Y-53249D01*
X83214Y-53257D01*
X83197Y-53269D01*
X83182Y-53283D01*
X83171Y-53300D01*
X83163Y-53319D01*
X83159Y-53339D01*
X83158Y-53360D01*
X83158Y-53795D01*
X83084Y-53795D01*
X82886Y-53596D01*
X82886Y-51476D01*
X82874Y-51401D01*
X82847Y-51330D01*
X82834Y-51306D01*
X82781Y-51274D01*
X82725Y-51331D01*
X82725Y-51218D01*
X82693Y-51165D01*
X82625Y-51133D01*
X82551Y-51116D01*
X82476Y-51113D01*
X82401Y-51125D01*
X82330Y-51152D01*
X82306Y-51165D01*
X82274Y-51218D01*
X82500Y-51443D01*
X82725Y-51218D01*
X82725Y-51331D01*
X82556Y-51500D01*
X82781Y-51725D01*
X82834Y-51693D01*
X82866Y-51625D01*
X82883Y-51551D01*
X82886Y-51476D01*
X82886Y-53596D01*
X82875Y-53585D01*
X82883Y-53548D01*
X82885Y-53462D01*
X82885Y-52462D01*
X82870Y-52388D01*
X82841Y-52318D01*
X82799Y-52255D01*
X82746Y-52201D01*
X82725Y-52187D01*
X82725Y-51781D01*
X82500Y-51556D01*
X82443Y-51613D01*
X82443Y-51500D01*
X82218Y-51274D01*
X82165Y-51306D01*
X82133Y-51374D01*
X82116Y-51448D01*
X82113Y-51523D01*
X82125Y-51598D01*
X82152Y-51669D01*
X82165Y-51693D01*
X82218Y-51725D01*
X82443Y-51500D01*
X82443Y-51613D01*
X82274Y-51781D01*
X82306Y-51834D01*
X82374Y-51866D01*
X82448Y-51883D01*
X82523Y-51886D01*
X82598Y-51874D01*
X82669Y-51847D01*
X82693Y-51834D01*
X82725Y-51781D01*
X82725Y-52187D01*
X82684Y-52159D01*
X82614Y-52130D01*
X82540Y-52115D01*
X82464Y-52114D01*
X82390Y-52128D01*
X82320Y-52157D01*
X82257Y-52198D01*
X82203Y-52251D01*
X82160Y-52313D01*
X82131Y-52383D01*
X82115Y-52456D01*
X82114Y-52532D01*
X82128Y-52606D01*
X82155Y-52676D01*
X82196Y-52740D01*
X82249Y-52794D01*
X82311Y-52837D01*
X82380Y-52867D01*
X82454Y-52884D01*
X82529Y-52885D01*
X82604Y-52872D01*
X82674Y-52845D01*
X82738Y-52804D01*
X82792Y-52752D01*
X82836Y-52691D01*
X82867Y-52622D01*
X82883Y-52548D01*
X82885Y-52462D01*
X82885Y-53462D01*
X82870Y-53388D01*
X82841Y-53318D01*
X82799Y-53255D01*
X82746Y-53201D01*
X82684Y-53159D01*
X82614Y-53130D01*
X82540Y-53115D01*
X82464Y-53114D01*
X82390Y-53128D01*
X82320Y-53157D01*
X82257Y-53198D01*
X82203Y-53251D01*
X82160Y-53313D01*
X82131Y-53383D01*
X82115Y-53456D01*
X82114Y-53532D01*
X82128Y-53606D01*
X82155Y-53676D01*
X82196Y-53740D01*
X82249Y-53794D01*
X82311Y-53837D01*
X82380Y-53867D01*
X82454Y-53884D01*
X82529Y-53885D01*
X82585Y-53875D01*
X82855Y-54144D01*
X82869Y-54156D01*
X82884Y-54169D01*
X82885Y-54169D01*
X82885Y-54170D01*
X82902Y-54179D01*
X82919Y-54188D01*
X82920Y-54188D01*
X82921Y-54189D01*
X82939Y-54194D01*
X82957Y-54200D01*
X82958Y-54200D01*
X82959Y-54200D01*
X82978Y-54202D01*
X82997Y-54204D01*
X82999Y-54204D01*
X82999Y-54204D01*
X82999Y-54204D01*
X83000Y-54205D01*
X83158Y-54205D01*
X83158Y-54659D01*
X83162Y-54679D01*
X83170Y-54698D01*
X83182Y-54715D01*
X83196Y-54730D01*
X83213Y-54741D01*
X83232Y-54749D01*
X83252Y-54753D01*
X83273Y-54754D01*
X83295Y-54754D01*
X83295Y-55344D01*
X83214Y-55344D01*
X83194Y-55348D01*
X83175Y-55356D01*
X83158Y-55368D01*
X83143Y-55382D01*
X83132Y-55399D01*
X83124Y-55418D01*
X83120Y-55438D01*
X83119Y-55459D01*
X83119Y-55810D01*
X83123Y-55830D01*
X83131Y-55849D01*
X83143Y-55866D01*
X83157Y-55881D01*
X83174Y-55892D01*
X83193Y-55900D01*
X83213Y-55904D01*
X83234Y-55905D01*
X83785Y-55905D01*
X83805Y-55901D01*
X83824Y-55893D01*
X83841Y-55881D01*
X83856Y-55867D01*
X83867Y-55850D01*
X83875Y-55831D01*
X83876Y-55830D01*
X84295Y-55830D01*
X84295Y-56174D01*
X84257Y-56198D01*
X84203Y-56251D01*
X84160Y-56313D01*
X84131Y-56383D01*
X84115Y-56456D01*
X84114Y-56532D01*
X84128Y-56606D01*
X84155Y-56676D01*
X84196Y-56740D01*
X84249Y-56794D01*
X84311Y-56837D01*
X84380Y-56867D01*
X84454Y-56884D01*
X84529Y-56885D01*
X84604Y-56872D01*
X84674Y-56845D01*
X84738Y-56804D01*
X84792Y-56752D01*
X84836Y-56691D01*
X84867Y-56622D01*
X84883Y-56548D01*
X84885Y-56462D01*
X84870Y-56388D01*
X84841Y-56318D01*
X84799Y-56255D01*
X84746Y-56201D01*
X84705Y-56173D01*
X84705Y-55819D01*
X84735Y-55800D01*
X84789Y-55749D01*
X84832Y-55688D01*
X84862Y-55620D01*
X84878Y-55547D01*
X84880Y-55462D01*
X84865Y-55389D01*
X84837Y-55320D01*
X84795Y-55258D01*
X84743Y-55205D01*
X84681Y-55164D01*
X84612Y-55135D01*
X84539Y-55120D01*
X84465Y-55119D01*
X84392Y-55133D01*
X84323Y-55161D01*
X84260Y-55202D01*
X84207Y-55254D01*
X84165Y-55316D01*
X84136Y-55384D01*
X84128Y-55420D01*
X83876Y-55420D01*
X83876Y-55419D01*
X83868Y-55400D01*
X83856Y-55383D01*
X83842Y-55368D01*
X83825Y-55357D01*
X83806Y-55349D01*
X83786Y-55345D01*
X83765Y-55344D01*
X83705Y-55344D01*
X83705Y-54754D01*
X83746Y-54754D01*
X83766Y-54750D01*
X83785Y-54742D01*
X83802Y-54730D01*
X83817Y-54716D01*
X83828Y-54699D01*
X83836Y-54680D01*
X83840Y-54660D01*
X83841Y-54639D01*
X83841Y-54205D01*
X86000Y-54205D01*
X86018Y-54203D01*
X86037Y-54201D01*
X86038Y-54201D01*
X86039Y-54201D01*
X86057Y-54195D01*
X86076Y-54190D01*
X86077Y-54189D01*
X86078Y-54189D01*
X86094Y-54180D01*
X86111Y-54171D01*
X86112Y-54171D01*
X86113Y-54170D01*
X86128Y-54158D01*
X86142Y-54146D01*
X86144Y-54145D01*
X86144Y-54145D01*
X86144Y-54145D01*
X86144Y-54144D01*
X87418Y-52871D01*
X87454Y-52879D01*
X87529Y-52880D01*
X87602Y-52867D01*
X87672Y-52840D01*
X87735Y-52800D01*
X87789Y-52749D01*
X87832Y-52688D01*
X87862Y-52620D01*
X87878Y-52547D01*
X87880Y-52462D01*
X87865Y-52389D01*
X87837Y-52320D01*
X87795Y-52258D01*
X87743Y-52205D01*
X87705Y-52179D01*
X87705Y-51825D01*
X87738Y-51804D01*
X87792Y-51752D01*
X87836Y-51691D01*
X87867Y-51622D01*
X87883Y-51548D01*
X87885Y-51462D01*
X87885Y-56469D01*
X87881Y-56444D01*
X87881Y-55475D01*
X87869Y-55402D01*
X87843Y-55332D01*
X87830Y-55309D01*
X87778Y-55278D01*
X87721Y-55335D01*
X87721Y-55221D01*
X87690Y-55169D01*
X87622Y-55138D01*
X87550Y-55121D01*
X87475Y-55118D01*
X87402Y-55130D01*
X87332Y-55156D01*
X87309Y-55169D01*
X87278Y-55221D01*
X87500Y-55443D01*
X87721Y-55221D01*
X87721Y-55335D01*
X87556Y-55500D01*
X87778Y-55721D01*
X87830Y-55690D01*
X87861Y-55622D01*
X87878Y-55550D01*
X87881Y-55475D01*
X87881Y-56444D01*
X87874Y-56401D01*
X87847Y-56330D01*
X87834Y-56306D01*
X87781Y-56274D01*
X87725Y-56331D01*
X87725Y-56218D01*
X87721Y-56212D01*
X87721Y-55778D01*
X87500Y-55556D01*
X87443Y-55613D01*
X87443Y-55500D01*
X87221Y-55278D01*
X87169Y-55309D01*
X87138Y-55377D01*
X87121Y-55449D01*
X87118Y-55524D01*
X87130Y-55597D01*
X87156Y-55667D01*
X87169Y-55690D01*
X87221Y-55721D01*
X87443Y-55500D01*
X87443Y-55613D01*
X87278Y-55778D01*
X87309Y-55830D01*
X87377Y-55861D01*
X87449Y-55878D01*
X87524Y-55881D01*
X87597Y-55869D01*
X87667Y-55843D01*
X87690Y-55830D01*
X87721Y-55778D01*
X87721Y-56212D01*
X87693Y-56165D01*
X87625Y-56133D01*
X87551Y-56116D01*
X87476Y-56113D01*
X87401Y-56125D01*
X87330Y-56152D01*
X87306Y-56165D01*
X87274Y-56218D01*
X87500Y-56443D01*
X87725Y-56218D01*
X87725Y-56331D01*
X87556Y-56500D01*
X87781Y-56725D01*
X87834Y-56693D01*
X87866Y-56625D01*
X87883Y-56551D01*
X87886Y-56476D01*
X87886Y-56890D01*
X87725Y-56890D01*
X87725Y-56781D01*
X87500Y-56556D01*
X87443Y-56613D01*
X87443Y-56500D01*
X87218Y-56274D01*
X87165Y-56306D01*
X87133Y-56374D01*
X87116Y-56448D01*
X87113Y-56523D01*
X87125Y-56598D01*
X87152Y-56669D01*
X87165Y-56693D01*
X87218Y-56725D01*
X87443Y-56500D01*
X87443Y-56613D01*
X87274Y-56781D01*
X87306Y-56834D01*
X87374Y-56866D01*
X87448Y-56883D01*
X87523Y-56886D01*
X87598Y-56874D01*
X87669Y-56847D01*
X87693Y-56834D01*
X87725Y-56781D01*
X87725Y-56890D01*
X86885Y-56890D01*
X86885Y-56462D01*
X86870Y-56388D01*
X86841Y-56318D01*
X86799Y-56255D01*
X86746Y-56201D01*
X86705Y-56173D01*
X86705Y-55819D01*
X86735Y-55800D01*
X86789Y-55749D01*
X86832Y-55688D01*
X86862Y-55620D01*
X86878Y-55547D01*
X86880Y-55462D01*
X86865Y-55389D01*
X86837Y-55320D01*
X86795Y-55258D01*
X86743Y-55205D01*
X86681Y-55164D01*
X86612Y-55135D01*
X86539Y-55120D01*
X86465Y-55119D01*
X86392Y-55133D01*
X86323Y-55161D01*
X86260Y-55202D01*
X86207Y-55254D01*
X86165Y-55316D01*
X86136Y-55384D01*
X86120Y-55457D01*
X86119Y-55531D01*
X86132Y-55605D01*
X86160Y-55674D01*
X86200Y-55737D01*
X86252Y-55790D01*
X86295Y-55820D01*
X86295Y-56174D01*
X86257Y-56198D01*
X86203Y-56251D01*
X86160Y-56313D01*
X86131Y-56383D01*
X86115Y-56456D01*
X86114Y-56532D01*
X86128Y-56606D01*
X86155Y-56676D01*
X86196Y-56740D01*
X86249Y-56794D01*
X86311Y-56837D01*
X86380Y-56867D01*
X86454Y-56884D01*
X86529Y-56885D01*
X86604Y-56872D01*
X86674Y-56845D01*
X86738Y-56804D01*
X86792Y-56752D01*
X86836Y-56691D01*
X86867Y-56622D01*
X86883Y-56548D01*
X86885Y-56462D01*
X86885Y-56890D01*
X85885Y-56890D01*
X85885Y-56462D01*
X85870Y-56388D01*
X85841Y-56318D01*
X85799Y-56255D01*
X85746Y-56201D01*
X85705Y-56173D01*
X85705Y-55819D01*
X85735Y-55800D01*
X85789Y-55749D01*
X85832Y-55688D01*
X85862Y-55620D01*
X85878Y-55547D01*
X85880Y-55462D01*
X85865Y-55389D01*
X85837Y-55320D01*
X85795Y-55258D01*
X85743Y-55205D01*
X85681Y-55164D01*
X85612Y-55135D01*
X85539Y-55120D01*
X85465Y-55119D01*
X85392Y-55133D01*
X85323Y-55161D01*
X85260Y-55202D01*
X85207Y-55254D01*
X85165Y-55316D01*
X85136Y-55384D01*
X85120Y-55457D01*
X85119Y-55531D01*
X85132Y-55605D01*
X85160Y-55674D01*
X85200Y-55737D01*
X85252Y-55790D01*
X85295Y-55820D01*
X85295Y-56174D01*
X85257Y-56198D01*
X85203Y-56251D01*
X85160Y-56313D01*
X85131Y-56383D01*
X85115Y-56456D01*
X85114Y-56532D01*
X85128Y-56606D01*
X85155Y-56676D01*
X85196Y-56740D01*
X85249Y-56794D01*
X85311Y-56837D01*
X85380Y-56867D01*
X85454Y-56884D01*
X85529Y-56885D01*
X85604Y-56872D01*
X85674Y-56845D01*
X85738Y-56804D01*
X85792Y-56752D01*
X85836Y-56691D01*
X85867Y-56622D01*
X85883Y-56548D01*
X85885Y-56462D01*
X85885Y-56890D01*
X83880Y-56890D01*
X83880Y-56540D01*
X83880Y-56189D01*
X83876Y-56169D01*
X83868Y-56150D01*
X83856Y-56133D01*
X83842Y-56118D01*
X83825Y-56107D01*
X83806Y-56099D01*
X83786Y-56095D01*
X83765Y-56094D01*
X83214Y-56094D01*
X83194Y-56098D01*
X83175Y-56106D01*
X83158Y-56118D01*
X83143Y-56132D01*
X83132Y-56149D01*
X83124Y-56168D01*
X83123Y-56170D01*
X82885Y-56170D01*
X82885Y-55462D01*
X82885Y-54462D01*
X82870Y-54388D01*
X82841Y-54318D01*
X82799Y-54255D01*
X82746Y-54201D01*
X82684Y-54159D01*
X82614Y-54130D01*
X82540Y-54115D01*
X82464Y-54114D01*
X82390Y-54128D01*
X82320Y-54157D01*
X82257Y-54198D01*
X82203Y-54251D01*
X82160Y-54313D01*
X82131Y-54383D01*
X82115Y-54456D01*
X82114Y-54532D01*
X82128Y-54606D01*
X82155Y-54676D01*
X82196Y-54740D01*
X82249Y-54794D01*
X82311Y-54837D01*
X82380Y-54867D01*
X82454Y-54884D01*
X82529Y-54885D01*
X82604Y-54872D01*
X82674Y-54845D01*
X82738Y-54804D01*
X82792Y-54752D01*
X82836Y-54691D01*
X82867Y-54622D01*
X82883Y-54548D01*
X82885Y-54462D01*
X82885Y-55462D01*
X82870Y-55388D01*
X82841Y-55318D01*
X82799Y-55255D01*
X82746Y-55201D01*
X82684Y-55159D01*
X82614Y-55130D01*
X82540Y-55115D01*
X82464Y-55114D01*
X82390Y-55128D01*
X82320Y-55157D01*
X82257Y-55198D01*
X82203Y-55251D01*
X82160Y-55313D01*
X82131Y-55383D01*
X82115Y-55456D01*
X82114Y-55532D01*
X82128Y-55606D01*
X82155Y-55676D01*
X82196Y-55740D01*
X82249Y-55794D01*
X82311Y-55837D01*
X82380Y-55867D01*
X82454Y-55884D01*
X82529Y-55885D01*
X82604Y-55872D01*
X82674Y-55845D01*
X82738Y-55804D01*
X82792Y-55752D01*
X82836Y-55691D01*
X82867Y-55622D01*
X82883Y-55548D01*
X82885Y-55462D01*
X82885Y-56170D01*
X82699Y-56170D01*
X82684Y-56159D01*
X82614Y-56130D01*
X82540Y-56115D01*
X82464Y-56114D01*
X82390Y-56128D01*
X82320Y-56157D01*
X82257Y-56198D01*
X82203Y-56251D01*
X82160Y-56313D01*
X82131Y-56383D01*
X82115Y-56456D01*
X82114Y-56532D01*
X82128Y-56606D01*
X82155Y-56676D01*
X82196Y-56740D01*
X82249Y-56794D01*
X82311Y-56837D01*
X82380Y-56867D01*
X82454Y-56884D01*
X82529Y-56885D01*
X82604Y-56872D01*
X82674Y-56845D01*
X82738Y-56804D01*
X82792Y-56752D01*
X82836Y-56691D01*
X82867Y-56622D01*
X82876Y-56580D01*
X83123Y-56580D01*
X83123Y-56580D01*
X83131Y-56599D01*
X83143Y-56616D01*
X83157Y-56631D01*
X83174Y-56642D01*
X83193Y-56650D01*
X83213Y-56654D01*
X83234Y-56655D01*
X83785Y-56655D01*
X83805Y-56651D01*
X83824Y-56643D01*
X83841Y-56631D01*
X83856Y-56617D01*
X83867Y-56600D01*
X83875Y-56581D01*
X83879Y-56561D01*
X83880Y-56540D01*
X83880Y-56890D01*
X82110Y-56890D01*
X82110Y-51110D01*
X87890Y-51110D01*
X87890Y-56890D01*
M02*
